Django==1.11.4
django-bootstrap3==9.1.0
django-ckeditor==5.4.0
django-jet==1.0.6
django-js-asset==0.1.1
django-widget-tweaks==1.4.1
mysqlclient==1.3.12
olefile==0.44
parameter==0.0.3.dev2
Pillow==4.3.0
pytz==2017.3
